…
## Usage

This package consists of a single data object, a taxonomic database of
pteridophytes called `pteridocat`.

The `tibble` package is recommended for pretty printing.

``` r
library(pteridocat)
library(tibble)

pteridocat
#> # A tibble: 64,601 × 18
#>    taxonID parentNameUsageID acceptedNameUsageID taxonomicStatus       taxonRank
#>    <chr>   <chr>             <chr>               <chr>                 <chr>    
#>  1 DWY5    <NA>              DX28                synonym               species  
#>  2 6RMC9   <NA>              DWV4                synonym               species  
#>  3 3V22X   62YQB             <NA>                accepted              species  
#>  4 DWZC    <NA>              5M863               synonym               species  
#>  5 36HMM   465R              <NA>                accepted              species  
#>  6 7Y7BL   7PTHT             <NA>                provisionally accept… species  
#>  7 6QFWR   62YQB             <NA>                accepted              species  
#>  8 3V2B8   62YQB             <NA>                accepted              species  
#>  9 7WYVJ   62YQB             <NA>                accepted              species  
#> 10 3V2B7   62YQB             <NA>                accepted              species  
#> # … with 64,591 more rows, and 13 more variables: scientificName <chr>,
#> #   scientificNameAuthorship <chr>, genericName <chr>,
#> #   infragenericEpithet <chr>, specificEpithet <chr>,
#> #   infraspecificEpithet <chr>, nomenclaturalCode <chr>,
#> #   nomenclaturalStatus <chr>, taxonRemarks <chr>, references <chr>,
#> #   modified <chr>, namePublishedIn <chr>, nameAccordingTo <chr>
```
…
